      _    ____   ____   ____  _____   ________   _________ 
     / \\  |_  _| |_  _| |_   \\|_   _| |_   __  | |  _   _  |
    / _ \\   \\ \\   / /     |   \\ | |     | |_ \\_| |_/ | | \\_|
   / ___ \\   \\ \\ / /      | |\\ \\| |     |  _| _      | |    
 _/ /   \\ \\_  \\ ' /      _| |_\\   |_   _| |__/ |    _| |_   
|____| |____|  \\_/      |_____|\\____| |________|   |_____|  

       copyright@avnet.Ins   2020.
